<?xml version="1.0" encoding="UTF-8" standalone="no"?>
<!-- Created with Inkscape (http://www.inkscape.org/) -->

<svg
   xmlns:dc="http://purl.org/dc/elements/1.1/"
   xmlns:cc="http://creativecommons.org/ns#"
   xmlns:rdf="http://www.w3.org/1999/02/22-rdf-syntax-ns#"
   xmlns:svg="http://www.w3.org/2000/svg"
   xmlns="http://www.w3.org/2000/svg"
   xmlns:sodipodi="http://sodipodi.sourceforge.net/DTD/sodipodi-0.dtd"
   xmlns:inkscape="http://www.inkscape.org/namespaces/inkscape"
   id="svg2"
   version="1.1"
   inkscape:version="0.92.4 (unknown)"
   width="480"
   height="180"
   xml:space="preserve"
   sodipodi:docname="logo-calafou.svg"
   inkscape:export-filename="/media/data/calafou/logo-calafou/logo-calafou-2a.png"
   inkscape:export-xdpi="90"
   inkscape:export-ydpi="90"><metadata
     id="metadata8"><rdf:RDF><cc:Work
         rdf:about=""><dc:format>image/svg+xml</dc:format><dc:type
           rdf:resource="http://purl.org/dc/dcmitype/StillImage" /><dc:title /></cc:Work></rdf:RDF></metadata><defs
     id="defs6"><inkscape:perspective
       sodipodi:type="inkscape:persp3d"
       inkscape:vp_x="0 : 0.5 : 1"
       inkscape:vp_y="0 : 1000 : 0"
       inkscape:vp_z="1 : 0.5 : 1"
       inkscape:persp3d-origin="0.5 : 0.33333333 : 1"
       id="perspective10" /><clipPath
       clipPathUnits="userSpaceOnUse"
       id="clipPath18"><path
         d="M 0,457.478 H 332.983 V 0 H 0 Z"
         id="path20"
         inkscape:connector-curvature="0" /></clipPath><filter
       id="filter4832"
       inkscape:label="filtro1"
       style="color-interpolation-filters:sRGB" /></defs><sodipodi:namedview
     pagecolor="#ffffff"
     bordercolor="#666666"
     borderopacity="1"
     objecttolerance="10"
     gridtolerance="10"
     guidetolerance="10"
     inkscape:pageopacity="0"
     inkscape:pageshadow="2"
     inkscape:window-width="1920"
     inkscape:window-height="1053"
     id="namedview4"
     showgrid="false"
     inkscape:zoom="1.6542969"
     inkscape:cx="155.76657"
     inkscape:cy="0.44688623"
     inkscape:window-x="0"
     inkscape:window-y="0"
     inkscape:window-maximized="1"
     inkscape:current-layer="g12"
     inkscape:snap-global="true"
     inkscape:snap-page="true"
     fit-margin-top="0"
     fit-margin-left="0"
     fit-margin-right="0"
     fit-margin-bottom="0" /><g
     id="g12"
     inkscape:groupmode="layer"
     inkscape:label="logo-calafou-final"
     transform="matrix(1.25,0,0,-1.25,-1.2450425e-7,3002.5861)"><g
       transform="matrix(0.38747166,0,0,0.38747166,55.344017,2330.0747)"
       id="g4737"
       style="fill:#4d4d4d;fill-opacity:1;stroke-width:2.7875545"><path
         inkscape:connector-curvature="0"
         id="path4739"
         style="fill:#4d4d4d;fill-opacity:1;fill-rule:nonzero;stroke:none;stroke-width:2.7875545"
         d="m 0,0 c -25.589,0 -46.409,-20.601 -46.409,-45.925 0,-25.323 20.82,-45.927 46.409,-45.927 25.592,0 46.409,20.604 46.409,45.927 C 46.409,-20.601 25.592,0 0,0" /></g><g
       style="fill:#2cab86;fill-opacity:1;stroke-width:2.7875545"
       id="g4818"
       transform="matrix(0.38747166,0,0,0.38747166,-9.1836579,2228.6888)"><g
         style="fill:#2cab86;fill-opacity:1;stroke-width:2.7875545"
         transform="translate(162.1768,149.793)"
         id="g4820"><path
           id="path4822"
           style="fill:#2cab86;fill-opacity:1;fill-rule:nonzero;stroke:none;stroke-width:2.7875545"
           d="M 0,0 C -7.351,0.268 -10.198,1.064 -14.157,2.336 L -35.229,-68.62 c 13.484,-3.791 16.802,-3.566 32.894,-5.348 z"
           inkscape:connector-curvature="0" /></g><g
         style="fill:#2cab86;fill-opacity:1;stroke-width:2.7875545"
         transform="translate(128.7764,161.1406)"
         id="g4824"><path
           id="path4826"
           style="fill:#2cab86;fill-opacity:1;fill-rule:nonzero;stroke:none;stroke-width:2.7875545"
           d="M 0,0 C -6.181,3.978 -8.224,6.114 -10.987,9.232 L -65.28,-41.072 c 9.675,-10.139 12.637,-11.632 25.574,-21.367 z"
           inkscape:connector-curvature="0" /></g><g
         style="fill:#2cab86;fill-opacity:1;stroke-width:2.7875545"
         transform="translate(104.9063,189.0732)"
         id="g4828"><path
           id="path4830"
           style="fill:#2cab86;fill-opacity:1;fill-rule:nonzero;stroke:none;stroke-width:2.7875545"
           d="m 0,0 c -3.362,6.541 -4.06,9.413 -4.878,13.488 l -72.213,-16.31 c 3.295,-13.611 5.113,-16.392 11.432,-31.301 z"
           inkscape:connector-curvature="0" /></g><g
         style="fill:#2cab86;fill-opacity:1;stroke-width:2.7875545"
         transform="translate(97.647496,224.6055)"
         id="g4832"><path
           id="path4834"
           style="fill:#2cab86;fill-opacity:1;fill-rule:nonzero;stroke:none;stroke-width:2.7875545"
           d="m 0,0 c 0.313,7.345 1.131,10.179 2.425,14.138 l -70.81,21.537 C -72.263,22.213 -72.064,18.897 -73.946,2.819 Z"
           inkscape:connector-curvature="0" /></g><g
         style="fill:#2cab86;fill-opacity:1;stroke-width:2.7875545"
         transform="translate(109.2168,257.9316)"
         id="g4836"><path
           id="path4838"
           style="fill:#2cab86;fill-opacity:1;fill-rule:nonzero;stroke:none;stroke-width:2.7875545"
           d="M 0,0 C 4.014,6.153 6.171,8.181 9.297,10.927 L -40.651,65.542 C -50.851,55.941 -52.363,52.985 -62.186,40.113 Z"
           inkscape:connector-curvature="0" /></g><g
         style="fill:#2cab86;fill-opacity:1;stroke-width:2.7875545"
         transform="translate(136.3389,282.7095)"
         id="g4840"><path
           id="path4842"
           style="fill:#2cab86;fill-opacity:1;fill-rule:nonzero;stroke:none;stroke-width:2.7875545"
           d="M 0,0 C 6.521,3.419 9.382,4.136 13.459,4.982 L -3.416,77.061 C -17,73.659 -19.77,71.836 -34.635,65.395 Z"
           inkscape:connector-curvature="0" /></g><g
         style="fill:#2cab86;fill-opacity:1;stroke-width:2.7875545"
         transform="translate(197.207,157.9102)"
         id="g4844"><path
           id="path4846"
           style="fill:#2cab86;fill-opacity:1;fill-rule:nonzero;stroke:none;stroke-width:2.7875545"
           d="M 0,0 C -6.509,-3.431 -9.375,-4.159 -13.43,-5.039 L 3.7,-77.04 c 13.57,3.44 16.331,5.285 31.165,11.772 z"
           inkscape:connector-curvature="0" /></g><g
         style="fill:#2cab86;fill-opacity:1;stroke-width:2.7875545"
         transform="translate(224.8975,181.8037)"
         id="g4848"><path
           id="path4850"
           style="fill:#2cab86;fill-opacity:1;fill-rule:nonzero;stroke:none;stroke-width:2.7875545"
           d="M 0,0 C -3.969,-6.19 -6.116,-8.229 -9.229,-10.987 L 41.058,-65.3 c 10.138,9.666 11.636,12.634 21.376,25.57 z"
           inkscape:connector-curvature="0" /></g><g
         style="fill:#2cab86;fill-opacity:1;stroke-width:2.7875545"
         transform="translate(235.7832,216.0762)"
         id="g4852"><path
           id="path4854"
           style="fill:#2cab86;fill-opacity:1;fill-rule:nonzero;stroke:none;stroke-width:2.7875545"
           d="m 0,0 c -0.364,-7.345 -1.209,-10.178 -2.516,-14.129 l 70.67,-21.982 c 3.961,13.433 3.784,16.749 5.775,32.819 z"
           inkscape:connector-curvature="0" /></g><path
         style="fill:#2cab86;fill-opacity:1;fill-rule:evenodd;stroke:none;stroke-width:2.7875545"
         d="m 233.36286,196.69536 c -1.0304,-4.0976 -3.07896,-9.14104 -5.75,-12.625 l 32.57496,-20.6 c 3.94168,6.86736 7.33568,14.09753 10.1,21.625 z"
         id="path4856"
         inkscape:connector-curvature="0" /><path
         style="fill:#2cab86;fill-opacity:1;fill-rule:evenodd;stroke:none;stroke-width:2.7875545"
         d="m 212.00084,167.87252 c -2.89127,-3.08101 -7.13196,-6.49412 -11.15914,-8.24175 l 18.46522,-33.8308 c 6.78147,4.08766 13.26049,8.75851 19.33356,13.99513 z"
         id="path4858"
         inkscape:connector-curvature="0" /><path
         style="fill:#2cab86;fill-opacity:1;fill-rule:evenodd;stroke:none;stroke-width:2.7875545"
         d="m 180.13926,151.2657 c -4.0492,-1.20665 -9.43155,-2.02094 -13.791,-1.50363 l -1.07597,-38.52701 c 7.91729,0.11807 15.86682,0.89231 23.75041,2.35974 z"
         id="path4860"
         inkscape:connector-curvature="0" /><path
         style="fill:#2cab86;fill-opacity:1;fill-rule:evenodd;stroke:none;stroke-width:2.7875545"
         d="m 143.89758,153.76968 c -4.11471,0.95978 -9.19262,2.9213 -12.72199,5.53204 l -20.0368,-32.92439 c 6.93413,-3.823 14.22159,-7.09215 21.79549,-9.72662 z"
         id="path4862"
         inkscape:connector-curvature="0" /><path
         style="fill:#2cab86;fill-opacity:1;fill-rule:evenodd;stroke:none;stroke-width:2.7875545"
         d="m 114.92952,173.88933 c -3.02291,2.95195 -6.35101,7.25967 -8.01819,11.32082 L 72.719986,167.42136 c 3.952,-6.86142 8.493089,-13.43204 13.607897,-19.60805 z"
         id="path4864"
         inkscape:connector-curvature="0" /><path
         style="fill:#2cab86;fill-opacity:1;fill-rule:evenodd;stroke:none;stroke-width:2.7875545"
         d="m 99.001251,206.394 c -1.182867,4.05621 -1.965538,9.44325 -1.422645,13.79959 L 59.05857,221.4957 c 0.0716,-7.91784 0.799154,-15.87178 2.220285,-23.76386 z"
         id="path4866"
         inkscape:connector-curvature="0" /><path
         style="fill:#2cab86;fill-opacity:1;fill-rule:evenodd;stroke:none;stroke-width:2.7875545"
         d="m 101.39596,242.72771 c 1.03163,4.09729 3.08174,9.14009 5.75385,12.62323 l -32.568659,20.60998 c -3.943768,-6.86616 -7.339973,-14.09529 -10.106604,-21.62193 z"
         id="path4868"
         inkscape:connector-curvature="0" /><path
         style="fill:#2cab86;fill-opacity:1;fill-rule:evenodd;stroke:none;stroke-width:2.7875545"
         d="m 121.92137,271.8039 c 2.98123,2.99405 7.32117,6.28005 11.39835,7.90762 l -17.4551,34.36289 c -6.89956,-3.88502 -13.51408,-8.36193 -19.739606,-13.41637 z"
         id="path4870"
         inkscape:connector-curvature="0" /></g><g
       transform="matrix(0.38747166,0,0,0.38747166,82.064034,2328.2879)"
       id="g4745"
       style="fill:#4d4d4d;fill-opacity:1;stroke-width:2.7875545"><path
         inkscape:connector-curvature="0"
         id="path4747"
         style="fill:#4d4d4d;fill-opacity:1;fill-rule:evenodd;stroke:none;stroke-width:2.7875545"
         d="M 0,0 C -0.278,17.504 -12.106,28.343 -30.65,29.497 -23.378,16.722 -14.399,5.649 0,0 M 7.52,13.881 C 24.604,13.953 34.004,21.713 41.645,31.232 25.421,30.297 14.969,23.59 7.52,13.881 M -33.542,50.896 C 15.157,49.235 47.305,67.211 68.247,91.382 28.309,83.896 -4.052,68.829 -33.542,50.896 m -50.32,71.139 c -7.174,5.742 -18.084,7.749 -31.81,6.94 6.686,-6.544 21.813,-15.715 31.81,-6.94 M 5.785,119.144 C -8.593,105.945 -20.838,88.746 -29.494,70.561 c -1.573,-3.308 -4.42,-6.874 -4.048,-10.989 39.081,5.643 48.327,44.209 60.148,75.187 -6.515,-5.904 -14.305,-9.635 -20.821,-15.615 m -85.599,4.047 c 10.597,5.063 7.247,31.608 1.736,41.643 -6.079,-10.066 -10.423,-31.204 -1.736,-41.643 m 57.839,30.655 c 20.662,-7.584 35.057,9.132 42.795,21.976 -17.234,-4.357 -33.054,-10.128 -42.795,-21.976 m -7.519,-1.158 c -4.124,11.301 -8.033,22.812 -17.93,28.34 0.557,-14.866 1.95,-28.895 17.93,-28.34 m -29.497,-38.75 c 13.433,8.543 23.049,20.906 30.074,35.859 -18.396,-2.335 -22.356,17.697 -20.82,35.28 13.474,-4.84 18.419,-18.21 21.4,-33.546 0.785,1.337 1.661,2.579 1.734,4.627 0.67,-0.485 1.55,-0.762 2.891,-0.577 10.977,12.549 29.049,21.07 48.584,23.133 -5.455,-16.306 -28.969,-40.377 -49.16,-27.183 -11.078,-14.368 -18.618,-32.281 -35.283,-41.063 -7.662,-31.685 -15.326,-73.429 -8.096,-111.045 6.72,21.425 16.279,40.016 30.073,54.366 0.466,2.005 -0.861,2.223 -0.576,4.048 3.475,3.867 4.427,8.878 6.362,13.302 13.26,30.339 35.978,54.63 65.353,69.982 C 22.693,117.849 17.562,88.859 0,72.296 15.573,83.308 38.406,85.709 60.151,91.96 66.909,93.902 72.122,98.319 78.657,98.322 75.221,91.837 69.175,86.151 63.622,80.972 48.792,67.14 25.021,51.177 -1.153,49.162 -13.819,48.186 -26.832,52.359 -37.594,48.005 -43.524,45.604 -51.568,31.467 -54.942,25.449 -59.074,18.084 -66.128,5.5 -66.51,-2.892 c -0.376,-8.179 4.468,-14.038 5.785,-20.82 16.871,-0.284 57.657,16.371 60.148,22.556 -15.153,6.252 -27.402,18.474 -32.388,32.967 18.405,-1.644 30.751,-9.347 34.702,-25.449 1.97,3.43 3.034,7.761 5.205,10.99 9.327,6.425 19.452,16.688 37.594,16.193 C 39.546,20.964 24.743,10.181 6.942,10.411 1.737,6.362 7.52,6.362 0,-4.915 c -2.214,-3.323 -22.85,-8.991 -30.65,-15.424 -16.784,-15.033 -17.294,-29.595 -35.665,-4.967 -12.144,13.785 -10.742,85.54 0.381,117.845 -4.301,9.772 -8.583,19.562 -13.88,28.339 -10.815,-11.554 -33.552,-1.095 -41.063,9.254 13.942,3.929 30.712,0.264 38.75,-6.941 -10.689,12.439 -3.903,36.928 4.627,46.848 6.816,-12.031 11.983,-38.376 0.58,-49.161 4.521,-6.66 9.058,-13.306 12.144,-21.4 3.304,8.481 4.361,16.34 8.099,24.871 0.744,1.519 -1.459,-7.866 -2.314,-10.411" /></g><g
       id="flowRoot4872"
       style="font-style:normal;font-weight:normal;font-size:64px;font-family:'Good Times';-inkscape-font-specification:'Good Times';fill:#4d4d4d;fill-opacity:1;stroke:none;stroke-width:1.23734677"
       transform="matrix(0.65600805,0,0,-0.69163592,281.80392,2713.7923)"><path
         inkscape:connector-curvature="0"
         id="path5025"
         style="font-style:normal;font-variant:normal;font-weight:normal;font-stretch:normal;font-size:64px;font-family:'Good Times';-inkscape-font-specification:'Good Times';fill:#4d4d4d;fill-opacity:1;stroke-width:1.23734677"
         d="m -226.9702,569.54922 z m 22.592,0 q -4.864,0 -9.024,-1.792 -4.096,-1.856 -7.168,-4.992 -3.008,-3.2 -4.736,-7.552 -1.664,-4.352 -1.664,-9.408 0,-5.12 1.664,-9.344 1.728,-4.224 4.736,-7.168 3.072,-3.008 7.168,-4.608 4.16,-1.664 9.024,-1.664 h 25.216 v 8.128 h -25.216 q -3.136,0 -5.824,1.152 -2.624,1.088 -4.544,3.072 -1.92,1.984 -3.008,4.736 -1.088,2.752 -1.088,6.08 0,3.264 1.088,6.08 1.088,2.816 3.008,4.864 1.92,1.984 4.544,3.136 2.688,1.152 5.824,1.152 h 25.216 v 8.128 z" /><path
         inkscape:connector-curvature="0"
         id="path5027"
         style="font-style:normal;font-variant:normal;font-weight:normal;font-stretch:normal;font-size:64px;font-family:'Good Times';-inkscape-font-specification:'Good Times';fill:#4d4d4d;fill-opacity:1;stroke-width:1.23734677"
         d="m -175.7622,569.54922 z m 51.648,0 -6.976,-11.712 h -22.016 l 3.84,-6.592 h 14.272 l -10.368,-17.408 -21.12,35.712 h -9.28 l 26.752,-44.544 q 0.704,-1.216 1.664,-1.92 0.96,-0.704 2.304,-0.704 1.344,0 2.24,0.704 0.96,0.704 1.664,1.92 l 26.816,44.544 z" /><path
         inkscape:connector-curvature="0"
         id="path5029"
         style="font-style:normal;font-variant:normal;font-weight:normal;font-stretch:normal;font-size:64px;font-family:'Good Times';-inkscape-font-specification:'Good Times';fill:#4d4d4d;fill-opacity:1;stroke-width:1.23734677"
         d="m -109.3762,569.54922 z m 0,0 v -46.528 h 8.128 v 38.4 h 31.295997 v 8.128 z" /><path
         inkscape:connector-curvature="0"
         id="path5031"
         style="font-style:normal;font-variant:normal;font-weight:normal;font-stretch:normal;font-size:64px;font-family:'Good Times';-inkscape-font-specification:'Good Times';fill:#4d4d4d;fill-opacity:1;stroke-width:1.23734677"
         d="m -67.262203,569.54922 z m 51.648,0 -6.976,-11.712 h -22.016 l 3.84,-6.592 h 14.272 l -10.368,-17.408 -21.12,35.712 h -9.28 l 26.752,-44.544 q 0.704,-1.216 1.664,-1.92 0.96,-0.704 2.304,-0.704 1.344,0 2.24,0.704 0.96,0.704 1.664,1.92 l 26.8159999,44.544 z" /><path
         inkscape:connector-curvature="0"
         id="path5033"
         style="font-style:normal;font-variant:normal;font-weight:normal;font-stretch:normal;font-size:64px;font-family:'Good Times';-inkscape-font-specification:'Good Times';fill:#4d4d4d;fill-opacity:1;stroke-width:1.23734677"
         d="m -0.87620313,569.54922 z m 0,0 v -46.528 H 38.611797 v 8.128 H 7.1877969 v 38.4 z m 14.01600013,-19.264 v -7.104 h 23.552 v 7.104 z" /><path
         inkscape:connector-curvature="0"
         id="path5035"
         style="font-style:normal;font-variant:normal;font-weight:normal;font-stretch:normal;font-size:64px;font-family:'Good Times';-inkscape-font-specification:'Good Times';fill:#4d4d4d;fill-opacity:1;stroke-width:1.23734677"
         d="m 42.904797,569.54922 z m 22.592,0 q -4.864,0 -9.024,-1.792 -4.096,-1.856 -7.168,-4.992 -3.008,-3.2 -4.736,-7.552 -1.664,-4.352 -1.664,-9.408 0,-5.12 1.664,-9.344 1.728,-4.224 4.736,-7.168 3.072,-3.008 7.168,-4.608 4.16,-1.664 9.024,-1.664 h 11.328 q 5.056,0 9.216,1.664 4.224,1.664 7.232,4.672 3.008,3.008 4.672,7.232 1.664,4.16 1.664,9.216 0,5.056 -1.728,9.408 -1.664,4.352 -4.736,7.552 -3.008,3.136 -7.168,4.992 -4.16,1.792 -9.152,1.792 z m 11.328,-8.128 q 3.2,0 5.888,-1.152 2.688,-1.152 4.608,-3.136 1.984,-2.048 3.072,-4.864 1.088,-2.816 1.088,-6.08 0,-3.264 -1.088,-6.016 -1.088,-2.816 -3.072,-4.8 -1.92,-1.984 -4.608,-3.072 -2.688,-1.152 -5.888,-1.152 h -11.328 q -3.136,0 -5.824,1.152 -2.624,1.088 -4.544,3.072 -1.92,1.984 -3.008,4.736 -1.088,2.752 -1.088,6.08 0,3.264 1.088,6.08 1.088,2.816 3.008,4.864 1.92,1.984 4.544,3.136 2.688,1.152 5.824,1.152 z" /><path
         inkscape:connector-curvature="0"
         id="path5037"
         style="font-style:normal;font-variant:normal;font-weight:normal;font-stretch:normal;font-size:64px;font-family:'Good Times';-inkscape-font-specification:'Good Times';fill:#4d4d4d;fill-opacity:1;stroke-width:1.23734677"
         d="m 105.5448,569.54922 z m 42.304,-46.528 h 7.936 v 25.984 q 0,5.376 -1.408,9.408 -1.408,3.968 -4.416,6.592 -3.008,2.624 -7.808,3.904 -4.736,1.28 -11.52,1.28 -6.72,0 -11.52,-1.28 -4.736,-1.28 -7.744,-3.904 -3.008,-2.624 -4.416,-6.592 -1.408,-4.032 -1.408,-9.408 v -25.984 h 8.384 v 25.984 q 0,3.52 0.832,6.016 0.896,2.496 2.816,4.096 1.984,1.6 5.248,2.368 3.264,0.704 8.064,0.704 4.8,0 8.064,-0.704 3.264,-0.768 5.184,-2.368 1.984,-1.6 2.816,-4.096 0.896,-2.496 0.896,-6.016 z" /></g><g
       id="flowRoot3107-73-7-3"
       style="font-style:normal;font-variant:normal;font-weight:500;font-stretch:normal;font-size:22.46987724px;font-family:AFKlampenborg;-inkscape-font-specification:'AFKlampenborg Medium';fill:#4d4d4d;fill-opacity:1;stroke:none;stroke-width:1.23209321"
       transform="matrix(0.81162688,0,0,-0.81162688,-62.381101,3621.2175)"><path
         inkscape:connector-curvature="0"
         id="path5126"
         style="font-style:normal;font-variant:normal;font-weight:500;font-stretch:normal;font-size:22.46987724px;font-family:AFKlampenborg;-inkscape-font-specification:'AFKlampenborg Medium';fill:#4d4d4d;fill-opacity:1;stroke-width:1.23209321"
         d="m 251.01644,1638.1921 -0.58422,-2.0447 q -1.07855,0.5168 -1.93241,0.6965 -0.83138,0.1573 -1.32572,0.1573 -1.30325,0 -1.88747,-0.4494 -0.56174,-0.4718 -0.56174,-1.2583 v -7.7746 q 0,-1.1235 0.7415,-1.6178 0.76398,-0.5168 1.865,-0.5168 0.60669,0 1.34819,0.2247 0.74151,0.2247 1.28079,0.5393 l 0.83138,-1.9998 q -0.9662,-0.4494 -1.84253,-0.6517 -0.87632,-0.2247 -1.84253,-0.2247 -0.92126,0 -1.77512,0.2697 -0.85385,0.2696 -1.50548,0.8089 -0.65163,0.5168 -1.05608,1.3032 -0.38199,0.764 -0.38199,1.7976 v 7.9993 q 0,1.0561 0.40446,1.7527 0.40445,0.6741 1.05608,1.0785 0.6741,0.4045 1.50548,0.5618 0.85386,0.1797 1.75265,0.1797 0.29211,0 0.71904,-0.045 0.4494,-0.022 0.9662,-0.1348 0.51681,-0.09 1.07856,-0.2472 0.58421,-0.1573 1.14596,-0.4045 z" /><path
         inkscape:connector-curvature="0"
         id="path5128"
         style="font-style:normal;font-variant:normal;font-weight:500;font-stretch:normal;font-size:22.46987724px;font-family:AFKlampenborg;-inkscape-font-specification:'AFKlampenborg Medium';fill:#4d4d4d;fill-opacity:1;stroke-width:1.23209321"
         d="m 260.80102,1635.3834 v -4.3142 q 0,-0.9662 -0.33705,-1.6403 -0.33705,-0.6966 -0.92126,-1.1235 -0.56175,-0.4269 -1.3482,-0.6067 -0.78644,-0.2022 -1.66277,-0.2022 -0.89879,0 -1.68524,0.2022 -0.76397,0.1798 -1.34819,0.6292 -0.56175,0.4269 -0.8988,1.1235 -0.33704,0.674 -0.33704,1.6403 v 4.2917 q 0,0.9887 0.33704,1.6852 0.33705,0.6741 0.8988,1.1235 0.58422,0.427 1.34819,0.6292 0.78645,0.2022 1.68524,0.2022 0.87633,0 1.66277,-0.2022 0.78645,-0.2022 1.3482,-0.6292 0.58421,-0.4494 0.92126,-1.1235 0.33705,-0.6965 0.33705,-1.6852 z m -2.33687,0 q 0,0.4045 -0.17976,0.719 -0.15729,0.2921 -0.42693,0.4719 -0.26963,0.1798 -0.62915,0.2696 -0.33705,0.09 -0.69657,0.09 -0.7415,0 -1.34819,-0.3595 -0.58422,-0.3595 -0.58422,-1.1909 v -4.1569 q 0,-0.8089 0.58422,-1.1909 0.58422,-0.4045 1.34819,-0.4045 0.74151,0 1.32572,0.4045 0.60669,0.382 0.60669,1.1909 v 4.1569 z" /><path
         inkscape:connector-curvature="0"
         id="path5130"
         style="font-style:normal;font-variant:normal;font-weight:500;font-stretch:normal;font-size:22.46987724px;font-family:AFKlampenborg;-inkscape-font-specification:'AFKlampenborg Medium';fill:#4d4d4d;fill-opacity:1;stroke-width:1.23209321"
         d="m 267.79407,1638.4393 -0.62916,-1.9773 q -0.42693,0.2471 -0.80892,0.337 -0.38198,0.09 -0.69656,0.045 -0.29211,-0.067 -0.47187,-0.2921 -0.17976,-0.2471 -0.17976,-0.6516 v -13.5718 h -1.73018 l -0.58422,2.629 v 11.6394 q 0,0.1123 0.0449,0.5168 0.0449,0.382 0.26964,0.8089 0.24717,0.4269 0.74151,0.764 0.51681,0.337 1.43807,0.337 0.58422,0 1.1909,-0.1348 0.62916,-0.1348 1.41561,-0.4494 z" /><path
         inkscape:connector-curvature="0"
         id="path5132"
         style="font-style:normal;font-variant:normal;font-weight:500;font-stretch:normal;font-size:22.46987724px;font-family:AFKlampenborg;-inkscape-font-specification:'AFKlampenborg Medium';fill:#4d4d4d;fill-opacity:1;stroke-width:1.23209321"
         d="m 277.34622,1635.3834 v -4.3142 q 0,-0.9662 -0.33705,-1.6403 -0.33704,-0.6966 -0.92126,-1.1235 -0.56175,-0.4269 -1.34819,-0.6067 -0.78645,-0.2022 -1.66277,-0.2022 -0.8988,0 -1.68525,0.2022 -0.76397,0.1798 -1.34819,0.6292 -0.56174,0.4269 -0.89879,1.1235 -0.33705,0.674 -0.33705,1.6403 v 4.2917 q 0,0.9887 0.33705,1.6852 0.33705,0.6741 0.89879,1.1235 0.58422,0.427 1.34819,0.6292 0.78645,0.2022 1.68525,0.2022 0.87632,0 1.66277,-0.2022 0.78644,-0.2022 1.34819,-0.6292 0.58422,-0.4494 0.92126,-1.1235 0.33705,-0.6965 0.33705,-1.6852 z m -2.33687,0 q 0,0.4045 -0.17975,0.719 -0.15729,0.2921 -0.42693,0.4719 -0.26964,0.1798 -0.62916,0.2696 -0.33705,0.09 -0.69656,0.09 -0.74151,0 -1.3482,-0.3595 -0.58421,-0.3595 -0.58421,-1.1909 v -4.1569 q 0,-0.8089 0.58421,-1.1909 0.58422,-0.4045 1.3482,-0.4045 0.7415,0 1.32572,0.4045 0.60668,0.382 0.60668,1.1909 v 4.1569 z" /><path
         inkscape:connector-curvature="0"
         id="path5134"
         style="font-style:normal;font-variant:normal;font-weight:500;font-stretch:normal;font-size:22.46987724px;font-family:AFKlampenborg;-inkscape-font-specification:'AFKlampenborg Medium';fill:#4d4d4d;fill-opacity:1;stroke-width:1.23209321"
         d="m 287.5974,1638.7988 v -8.0667 q 0,-1.0111 -0.26964,-1.6403 -0.26964,-0.6291 -0.7415,-0.9662 -0.47187,-0.337 -1.10103,-0.4494 -0.60668,-0.1348 -1.30325,-0.1348 -0.35952,0 -0.76398,0.09 -0.40445,0.067 -0.78644,0.2022 -0.38199,0.1124 -0.74151,0.2697 -0.33705,0.1572 -0.58422,0.3145 l -0.60668,-0.6516 h -1.46054 v 11.0327 h 2.29192 v -8.2914 q 0.33705,-0.2921 0.96621,-0.5392 0.62915,-0.2697 1.23584,-0.3371 0.62916,-0.067 1.07856,0.1798 0.47186,0.2471 0.47186,0.9662 l -0.0225,8.0217 h 2.33687 z" /><path
         inkscape:connector-curvature="0"
         id="path5136"
         style="font-style:normal;font-variant:normal;font-weight:500;font-stretch:normal;font-size:22.46987724px;font-family:AFKlampenborg;-inkscape-font-specification:'AFKlampenborg Medium';fill:#4d4d4d;fill-opacity:1;stroke-width:1.23209321"
         d="m 292.17353,1624.6653 v -2.3369 h -2.31439 v 2.3369 z m 0,14.1335 v -11.0327 h -2.31439 v 11.0327 z" /><path
         inkscape:connector-curvature="0"
         id="path5138"
         style="font-style:normal;font-variant:normal;font-weight:500;font-stretch:normal;font-size:22.46987724px;font-family:AFKlampenborg;-inkscape-font-specification:'AFKlampenborg Medium';fill:#4d4d4d;fill-opacity:1;stroke-width:1.23209321"
         d="m 302.17544,1638.7988 v -8.1341 q 0,-0.8314 -0.31458,-1.4156 -0.31458,-0.6067 -0.85386,-0.9887 -0.5168,-0.4044 -1.23584,-0.5842 -0.69657,-0.1797 -1.48301,-0.1797 -0.40446,0 -0.87633,0.067 -0.44939,0.045 -0.89879,0.1348 -0.4494,0.09 -0.85386,0.2247 -0.40446,0.1123 -0.7415,0.2472 l 0.53927,1.9324 q 0.35952,-0.1798 1.01115,-0.3371 0.67409,-0.1797 1.46054,-0.1797 0.31458,0 0.65163,0.045 0.33704,0.045 0.60668,0.1798 0.26964,0.1348 0.4494,0.4269 0.17976,0.2696 0.17976,0.7415 v 0.7864 l -2.17958,-0.022 q -0.62916,0 -1.25831,0.2022 -0.62916,0.1798 -1.14597,0.5842 -0.49433,0.382 -0.83138,0.9887 -0.31458,0.6067 -0.31458,1.4381 v 0.8314 q 0,1.0111 0.26964,1.6403 0.29211,0.6291 0.76398,0.9886 0.49433,0.3371 1.12349,0.4719 0.65163,0.1348 1.34819,0.1348 0.49434,0 1.21338,-0.1123 0.71903,-0.1124 1.50548,-0.4944 l 0.60668,0.382 h 1.25832 z m -2.35934,-2.2919 q -0.33705,0.2247 -0.92127,0.4044 -0.56174,0.1573 -1.10102,0.1573 -0.53928,-0.022 -0.94373,-0.2696 -0.38199,-0.2696 -0.38199,-0.9213 v -0.6965 q 0,-0.6517 0.35952,-0.9887 0.35951,-0.3595 1.16843,-0.3595 l 1.82006,-0.023 v 2.6964 z" /><path
         inkscape:connector-curvature="0"
         id="path5140"
         style="font-style:normal;font-variant:normal;font-weight:500;font-stretch:normal;font-size:22.46987724px;font-family:AFKlampenborg;-inkscape-font-specification:'AFKlampenborg Medium';fill:#4d4d4d;fill-opacity:1;stroke-width:1.23209321"
         d="m 318.72029,1636.7541 h -6.38144 v -4.9434 h 4.98831 v -1.9998 h -4.98831 v -3.8199 l -0.60669,-0.4719 h 6.65108 l 0.29211,-2.0223 h -8.62843 v 15.302 h 8.38126 z" /><path
         inkscape:connector-curvature="0"
         id="path5142"
         style="font-style:normal;font-variant:normal;font-weight:500;font-stretch:normal;font-size:22.46987724px;font-family:AFKlampenborg;-inkscape-font-specification:'AFKlampenborg Medium';fill:#4d4d4d;fill-opacity:1;stroke-width:1.23209321"
         d="m 328.01614,1638.3719 -0.53927,-2.1571 q -0.31458,0.1348 -0.78645,0.2921 -0.47187,0.1348 -1.01114,0.2247 -0.53928,0.09 -1.10103,0.09 -0.53927,-0.023 -0.98867,-0.2023 -0.42693,-0.2022 -0.69657,-0.6066 -0.26964,-0.427 -0.26964,-1.1235 v -3.2357 q 0,-0.8763 0.4494,-1.2808 0.4494,-0.4269 1.10103,-0.5168 0.67409,-0.09 1.46054,0.09 0.78644,0.1573 1.46054,0.4494 l 0.83139,-2.0897 q -0.65163,-0.3146 -1.61784,-0.5393 -0.94373,-0.2247 -1.82006,-0.2247 -0.87632,0 -1.66277,0.2247 -0.76397,0.2247 -1.32572,0.719 -0.56175,0.4719 -0.89879,1.2359 -0.31458,0.7415 -0.31458,1.7751 v 3.9772 q 0,1.0336 0.33704,1.7302 0.33705,0.6741 0.92127,1.0785 0.60669,0.4045 1.39313,0.5618 0.78645,0.1797 1.66277,0.1797 0.78645,0 1.6403,-0.1573 0.87633,-0.1573 1.77512,-0.4943 z" /><path
         inkscape:connector-curvature="0"
         id="path5144"
         style="font-style:normal;font-variant:normal;font-weight:500;font-stretch:normal;font-size:22.46987724px;font-family:AFKlampenborg;-inkscape-font-specification:'AFKlampenborg Medium';fill:#4d4d4d;fill-opacity:1;stroke-width:1.23209321"
         d="m 337.99733,1635.3834 v -4.3142 q 0,-0.9662 -0.33705,-1.6403 -0.33704,-0.6966 -0.92126,-1.1235 -0.56175,-0.4269 -1.34819,-0.6067 -0.78645,-0.2022 -1.66277,-0.2022 -0.8988,0 -1.68525,0.2022 -0.76397,0.1798 -1.34819,0.6292 -0.56175,0.4269 -0.89879,1.1235 -0.33705,0.674 -0.33705,1.6403 v 4.2917 q 0,0.9887 0.33705,1.6852 0.33704,0.6741 0.89879,1.1235 0.58422,0.427 1.34819,0.6292 0.78645,0.2022 1.68525,0.2022 0.87632,0 1.66277,-0.2022 0.78644,-0.2022 1.34819,-0.6292 0.58422,-0.4494 0.92126,-1.1235 0.33705,-0.6965 0.33705,-1.6852 z m -2.33687,0 q 0,0.4045 -0.17975,0.719 -0.15729,0.2921 -0.42693,0.4719 -0.26964,0.1798 -0.62916,0.2696 -0.33705,0.09 -0.69656,0.09 -0.74151,0 -1.3482,-0.3595 -0.58421,-0.3595 -0.58421,-1.1909 v -4.1569 q 0,-0.8089 0.58421,-1.1909 0.58422,-0.4045 1.3482,-0.4045 0.7415,0 1.32572,0.4045 0.60668,0.382 0.60668,1.1909 v 4.1569 z" /><path
         inkscape:connector-curvature="0"
         id="path5146"
         style="font-style:normal;font-variant:normal;font-weight:500;font-stretch:normal;font-size:22.46987724px;font-family:AFKlampenborg;-inkscape-font-specification:'AFKlampenborg Medium';fill:#4d4d4d;fill-opacity:1;stroke-width:1.23209321"
         d="m 342.20412,1624.6653 v -2.3369 h -2.3144 v 2.3369 z m 0,14.1335 v -11.0327 h -2.3144 v 11.0327 z" /><path
         inkscape:connector-curvature="0"
         id="path5148"
         style="font-style:normal;font-variant:normal;font-weight:500;font-stretch:normal;font-size:22.46987724px;font-family:AFKlampenborg;-inkscape-font-specification:'AFKlampenborg Medium';fill:#4d4d4d;fill-opacity:1;stroke-width:1.23209321"
         d="m 352.81271,1638.7988 v -8.0667 q 0,-1.0111 -0.26964,-1.6403 -0.26964,-0.6291 -0.7415,-0.9662 -0.47187,-0.337 -1.10103,-0.4494 -0.60669,-0.1348 -1.30325,-0.1348 -0.35952,0 -0.76398,0.09 -0.40446,0.067 -0.78644,0.2022 -0.38199,0.1124 -0.74151,0.2697 -0.33705,0.1572 -0.58422,0.3145 l -0.60668,-0.6516 h -1.46054 v 11.0327 h 2.29192 v -8.2914 q 0.33705,-0.2921 0.96621,-0.5392 0.62915,-0.2697 1.23584,-0.3371 0.62916,-0.067 1.07855,0.1798 0.47187,0.2471 0.47187,0.9662 l -0.0225,8.0217 h 2.33687 z" /><path
         inkscape:connector-curvature="0"
         id="path5150"
         style="font-style:normal;font-variant:normal;font-weight:500;font-stretch:normal;font-size:22.46987724px;font-family:AFKlampenborg;-inkscape-font-specification:'AFKlampenborg Medium';fill:#4d4d4d;fill-opacity:1;stroke-width:1.23209321"
         d="m 363.23101,1638.7988 v -13.9538 l -0.6741,-2.5391 h -1.68524 v 5.6624 q -0.58421,-0.2471 -1.23584,-0.337 -0.62916,-0.09 -0.94374,-0.09 -0.65162,0 -1.37066,0.1573 -0.69656,0.1573 -1.28078,0.5842 -0.56175,0.4045 -0.94374,1.1235 -0.35951,0.719 -0.35951,1.8201 v 4.449 q 0,0.9437 0.33704,1.5954 0.33705,0.6516 0.87633,1.0336 0.53928,0.382 1.21337,0.5393 0.69657,0.1797 1.43808,0.1797 0.26963,0 0.62915,-0.045 0.35952,-0.045 0.74151,-0.1124 0.38199,-0.067 0.71903,-0.1573 0.35952,-0.1123 0.60669,-0.2471 l 0.65163,0.337 h 1.28078 z m -2.35934,-2.3818 q -0.65162,0.3371 -1.25831,0.4494 -0.58422,0.09 -0.83139,0.09 -0.33704,0 -0.65162,-0.067 -0.29211,-0.09 -0.53928,-0.2697 -0.24717,-0.1797 -0.38199,-0.4718 -0.13482,-0.3146 -0.13482,-0.764 v -4.0895 q 0,-0.8089 0.40446,-1.1909 0.42693,-0.382 1.01115,-0.4719 0.58421,-0.09 1.23584,0.09 0.6741,0.1573 1.14596,0.4719 v 6.2241 z" /><path
         inkscape:connector-curvature="0"
         id="path5152"
         style="font-style:normal;font-variant:normal;font-weight:500;font-stretch:normal;font-size:22.46987724px;font-family:AFKlampenborg;-inkscape-font-specification:'AFKlampenborg Medium';fill:#4d4d4d;fill-opacity:1;stroke-width:1.23209321"
         d="m 373.6321,1638.7988 v -11.0327 h -2.31439 v 8.7183 q -0.58422,0.2697 -1.21338,0.4269 -0.62915,0.1349 -1.14596,0.068 -0.49434,-0.09 -0.83139,-0.4045 -0.31458,-0.337 -0.31458,-1.0111 v -7.8196 l -2.33686,0.023 v 7.8645 q 0,0.9886 0.26964,1.6627 0.2921,0.6517 0.76397,1.0337 0.47187,0.3819 1.10103,0.5392 0.62915,0.1573 1.34819,0.1573 0.49434,0 1.25831,-0.1123 0.76398,-0.09 1.55042,-0.4719 l 0.58422,0.3595 h 1.28078 z" /><path
         inkscape:connector-curvature="0"
         id="path5154"
         style="font-style:normal;font-variant:normal;font-weight:500;font-stretch:normal;font-size:22.46987724px;font-family:AFKlampenborg;-inkscape-font-specification:'AFKlampenborg Medium';fill:#4d4d4d;fill-opacity:1;stroke-width:1.23209321"
         d="m 382.86477,1635.0913 q 0,-0.719 -0.58422,-1.3033 -0.58421,-0.6067 -1.37066,-0.9886 l -2.49416,-1.2808 q -0.44939,-0.2247 -0.5168,-0.5618 -0.0674,-0.337 0.0449,-0.6067 0.15729,-0.4044 0.67409,-0.5168 0.53928,-0.1348 1.14597,-0.067 0.62915,0.045 1.21337,0.2023 0.58422,0.1348 0.89879,0.2696 l 0.60669,-2.1571 q -0.31458,-0.1348 -0.7415,-0.2247 -0.40446,-0.1124 -0.83139,-0.1798 -0.42693,-0.067 -0.83139,-0.09 -0.38198,-0.045 -0.67409,-0.045 -1.75265,0 -2.80874,0.8089 -1.03361,0.7865 -1.03361,2.247 v 0.3146 q 0,0.5617 0.17976,0.9887 0.17976,0.4269 0.49434,0.7864 0.31457,0.3371 0.71903,0.6067 0.42693,0.2696 0.92127,0.5168 l 1.77512,0.8988 q 0.26964,0.1348 0.58421,0.337 0.31458,0.1798 0.31458,0.5618 v 0.2472 q 0,0.6291 -0.53928,0.8538 -0.53927,0.2247 -1.28078,0.2247 -0.7415,-0.023 -1.50548,-0.2247 -0.76398,-0.2247 -1.21337,-0.4718 l -0.69657,1.9998 q 0.58422,0.3146 1.52795,0.5617 0.94374,0.2247 1.95488,0.2247 0.76398,0 1.48301,-0.1573 0.74151,-0.1573 1.30326,-0.5392 0.58421,-0.4045 0.92126,-1.0337 0.35952,-0.6291 0.35952,-1.5729 v -0.6291 z" /><path
         inkscape:connector-curvature="0"
         id="path5156"
         style="font-style:normal;font-variant:normal;font-weight:500;font-stretch:normal;font-size:22.46987724px;font-family:AFKlampenborg;-inkscape-font-specification:'AFKlampenborg Medium';fill:#4d4d4d;fill-opacity:1;stroke-width:1.23209321"
         d="m 390.33565,1629.8783 v -2.1122 h -2.62898 v -3.6176 h -1.68524 l -0.62916,1.9998 v 1.6178 h -1.50548 v 2.1122 h 1.50548 v 6.1567 q 0,0.5393 0.0899,1.0786 0.11235,0.5393 0.38199,0.9662 0.26964,0.4269 0.71904,0.6965 0.47187,0.2472 1.1909,0.2472 0.53928,0 1.16844,-0.1348 0.62915,-0.1348 1.37066,-0.5842 l -0.58422,-2.0448 q -0.26964,0.2247 -0.62916,0.382 -0.33704,0.1573 -0.67409,0.1798 -0.31458,0.022 -0.53928,-0.1348 -0.20223,-0.1798 -0.20223,-0.5843 l 0.0225,-6.2241 h 2.62898 z" /><path
         inkscape:connector-curvature="0"
         id="path5158"
         style="font-style:normal;font-variant:normal;font-weight:500;font-stretch:normal;font-size:22.46987724px;font-family:AFKlampenborg;-inkscape-font-specification:'AFKlampenborg Medium';fill:#4d4d4d;fill-opacity:1;stroke-width:1.23209321"
         d="m 397.48704,1627.811 q -1.07855,-0.4493 -2.02229,-0.2696 -0.94373,0.1573 -1.6403,1.0336 l -0.60669,-0.8089 h -1.1909 v 11.0327 h 2.3144 v -8.3363 q 0.42692,-0.5842 1.16843,-0.6516 0.76398,-0.067 1.48301,0.3145 z" /><path
         inkscape:connector-curvature="0"
         id="path5160"
         style="font-style:normal;font-variant:normal;font-weight:500;font-stretch:normal;font-size:22.46987724px;font-family:AFKlampenborg;-inkscape-font-specification:'AFKlampenborg Medium';fill:#4d4d4d;fill-opacity:1;stroke-width:1.23209321"
         d="m 401.05589,1624.6653 v -2.3369 h -2.3144 v 2.3369 z m 0,14.1335 v -11.0327 h -2.3144 v 11.0327 z" /><path
         inkscape:connector-curvature="0"
         id="path5162"
         style="font-style:normal;font-variant:normal;font-weight:500;font-stretch:normal;font-size:22.46987724px;font-family:AFKlampenborg;-inkscape-font-specification:'AFKlampenborg Medium';fill:#4d4d4d;fill-opacity:1;stroke-width:1.23209321"
         d="m 411.05779,1638.7988 v -8.1341 q 0,-0.8314 -0.31458,-1.4156 -0.31458,-0.6067 -0.85385,-0.9887 -0.51681,-0.4044 -1.23585,-0.5842 -0.69656,-0.1797 -1.48301,-0.1797 -0.40446,0 -0.87632,0.067 -0.4494,0.045 -0.8988,0.1348 -0.4494,0.09 -0.85385,0.2247 -0.40446,0.1123 -0.74151,0.2472 l 0.53928,1.9324 q 0.35952,-0.1798 1.01114,-0.3371 0.6741,-0.1797 1.46054,-0.1797 0.31458,0 0.65163,0.045 0.33705,0.045 0.60669,0.1798 0.26964,0.1348 0.4494,0.4269 0.17975,0.2696 0.17975,0.7415 v 0.7864 l -2.17957,-0.022 q -0.62916,0 -1.25832,0.2022 -0.62915,0.1798 -1.14596,0.5842 -0.49434,0.382 -0.83139,0.9887 -0.31457,0.6067 -0.31457,1.4381 v 0.8314 q 0,1.0111 0.26963,1.6403 0.29211,0.6291 0.76398,0.9886 0.49434,0.3371 1.12349,0.4719 0.65163,0.1348 1.3482,0.1348 0.49433,0 1.21337,-0.1123 0.71904,-0.1124 1.50548,-0.4944 l 0.60669,0.382 h 1.25831 z m -2.35934,-2.2919 q -0.33704,0.2247 -0.92126,0.4044 -0.56175,0.1573 -1.10102,0.1573 -0.53928,-0.022 -0.94374,-0.2696 -0.38199,-0.2696 -0.38199,-0.9213 v -0.6965 q 0,-0.6517 0.35952,-0.9887 0.35952,-0.3595 1.16843,-0.3595 l 1.82006,-0.023 v 2.6964 z" /><path
         inkscape:connector-curvature="0"
         id="path5164"
         style="font-style:normal;font-variant:normal;font-weight:500;font-stretch:normal;font-size:22.46987724px;font-family:AFKlampenborg;-inkscape-font-specification:'AFKlampenborg Medium';fill:#4d4d4d;fill-opacity:1;stroke-width:1.23209321"
         d="m 418.41246,1638.4393 -0.62915,-1.9773 q -0.42693,0.2471 -0.80892,0.337 -0.38199,0.09 -0.69656,0.045 -0.29211,-0.067 -0.47187,-0.2921 -0.17976,-0.2471 -0.17976,-0.6516 v -13.5718 h -1.73018 l -0.58422,2.629 v 11.6394 q 0,0.1123 0.0449,0.5168 0.0449,0.382 0.26964,0.8089 0.24717,0.4269 0.74151,0.764 0.5168,0.337 1.43807,0.337 0.58422,0 1.1909,-0.1348 0.62916,-0.1348 1.4156,-0.4494 z" /><path
         inkscape:connector-curvature="0"
         id="path5166"
         style="font-style:normal;font-variant:normal;font-weight:500;font-stretch:normal;font-size:22.46987724px;font-family:AFKlampenborg;-inkscape-font-specification:'AFKlampenborg Medium';fill:#4d4d4d;fill-opacity:1;stroke-width:1.23209321"
         d="m 434.30112,1628.7997 v -1.3706 q 0,-0.8988 -0.29211,-1.6179 -0.29211,-0.7415 -0.80892,-1.2583 -0.51681,-0.5168 -1.23584,-0.7864 -0.69657,-0.2921 -1.52795,-0.2921 h -5.05573 v 15.3244 h 2.3144 v -6.2241 h 2.40428 q 0.69656,0 1.43807,-0.2247 0.76398,-0.2247 1.37066,-0.6741 0.60669,-0.4719 0.98868,-1.1685 0.40446,-0.719 0.40446,-1.7077 z m -2.33687,-0.4494 q 0,0.6067 -0.20223,1.0336 -0.20223,0.4045 -0.53928,0.6741 -0.31458,0.2472 -0.76397,0.3596 -0.42693,0.09 -0.8988,0.09 h -1.865 v -5.0107 h 2.15711 q 0.42693,0 0.80892,0.1123 0.38198,0.1124 0.67409,0.3595 0.29211,0.2472 0.4494,0.6516 0.17976,0.382 0.17976,0.9663 v 0.7639 z" /><path
         inkscape:connector-curvature="0"
         id="path5168"
         style="font-style:normal;font-variant:normal;font-weight:500;font-stretch:normal;font-size:22.46987724px;font-family:AFKlampenborg;-inkscape-font-specification:'AFKlampenborg Medium';fill:#4d4d4d;fill-opacity:1;stroke-width:1.23209321"
         d="m 444.42204,1635.3834 v -4.3142 q 0,-0.9662 -0.33704,-1.6403 -0.33705,-0.6966 -0.92127,-1.1235 -0.56175,-0.4269 -1.34819,-0.6067 -0.78645,-0.2022 -1.66277,-0.2022 -0.8988,0 -1.68524,0.2022 -0.76398,0.1798 -1.3482,0.6292 -0.56174,0.4269 -0.89879,1.1235 -0.33705,0.674 -0.33705,1.6403 v 4.2917 q 0,0.9887 0.33705,1.6852 0.33705,0.6741 0.89879,1.1235 0.58422,0.427 1.3482,0.6292 0.78644,0.2022 1.68524,0.2022 0.87632,0 1.66277,-0.2022 0.78644,-0.2022 1.34819,-0.6292 0.58422,-0.4494 0.92127,-1.1235 0.33704,-0.6965 0.33704,-1.6852 z m -2.33686,0 q 0,0.4045 -0.17976,0.719 -0.15729,0.2921 -0.42693,0.4719 -0.26964,0.1798 -0.62916,0.2696 -0.33704,0.09 -0.69656,0.09 -0.74151,0 -1.34819,-0.3595 -0.58422,-0.3595 -0.58422,-1.1909 v -4.1569 q 0,-0.8089 0.58422,-1.1909 0.58421,-0.4045 1.34819,-0.4045 0.7415,0 1.32572,0.4045 0.60669,0.382 0.60669,1.1909 v 4.1569 z" /><path
         inkscape:connector-curvature="0"
         id="path5170"
         style="font-style:normal;font-variant:normal;font-weight:500;font-stretch:normal;font-size:22.46987724px;font-family:AFKlampenborg;-inkscape-font-specification:'AFKlampenborg Medium';fill:#4d4d4d;fill-opacity:1;stroke-width:1.23209321"
         d="m 453.30256,1635.0913 q 0,-0.719 -0.58422,-1.3033 -0.58421,-0.6067 -1.37066,-0.9886 l -2.49416,-1.2808 q -0.44939,-0.2247 -0.5168,-0.5618 -0.0674,-0.337 0.0449,-0.6067 0.15728,-0.4044 0.67409,-0.5168 0.53928,-0.1348 1.14597,-0.067 0.62915,0.045 1.21337,0.2023 0.58422,0.1348 0.89879,0.2696 l 0.60669,-2.1571 q -0.31458,-0.1348 -0.7415,-0.2247 -0.40446,-0.1124 -0.83139,-0.1798 -0.42693,-0.067 -0.83139,-0.09 -0.38198,-0.045 -0.67409,-0.045 -1.75265,0 -2.80874,0.8089 -1.03361,0.7865 -1.03361,2.247 v 0.3146 q 0,0.5617 0.17976,0.9887 0.17976,0.4269 0.49434,0.7864 0.31457,0.3371 0.71903,0.6067 0.42693,0.2696 0.92127,0.5168 l 1.77512,0.8988 q 0.26963,0.1348 0.58421,0.337 0.31458,0.1798 0.31458,0.5618 v 0.2472 q 0,0.6291 -0.53928,0.8538 -0.53927,0.2247 -1.28078,0.2247 -0.7415,-0.023 -1.50548,-0.2247 -0.76398,-0.2247 -1.21337,-0.4718 l -0.69657,1.9998 q 0.58422,0.3146 1.52795,0.5617 0.94374,0.2247 1.95488,0.2247 0.76398,0 1.48301,-0.1573 0.74151,-0.1573 1.30326,-0.5392 0.58421,-0.4045 0.92126,-1.0337 0.35952,-0.6291 0.35952,-1.5729 v -0.6291 z" /><path
         inkscape:connector-curvature="0"
         id="path5172"
         style="font-style:normal;font-variant:normal;font-weight:500;font-stretch:normal;font-size:22.46987724px;font-family:AFKlampenborg;-inkscape-font-specification:'AFKlampenborg Medium';fill:#4d4d4d;fill-opacity:1;stroke-width:1.23209321"
         d="m 460.77345,1629.8783 v -2.1122 h -2.62897 v -3.6176 h -1.68524 l -0.62916,1.9998 v 1.6178 h -1.50548 v 2.1122 h 1.50548 v 6.1567 q 0,0.5393 0.0899,1.0786 0.11235,0.5393 0.38199,0.9662 0.26964,0.4269 0.71903,0.6965 0.47187,0.2472 1.19091,0.2472 0.53927,0 1.16843,-0.1348 0.62916,-0.1348 1.37066,-0.5842 l -0.58421,-2.0448 q -0.26964,0.2247 -0.62916,0.382 -0.33705,0.1573 -0.6741,0.1798 -0.31458,0.022 -0.53927,-0.1348 -0.20223,-0.1798 -0.20223,-0.5843 l 0.0225,-6.2241 h 2.62897 z" /><path
         inkscape:connector-curvature="0"
         id="path5174"
         style="font-style:normal;font-variant:normal;font-weight:500;font-stretch:normal;font-size:22.46987724px;font-family:AFKlampenborg;-inkscape-font-specification:'AFKlampenborg Medium';fill:#4d4d4d;fill-opacity:1;stroke-width:1.23209321"
         d="m 469.85724,1638.3719 -0.53928,-2.1571 q -0.31458,0.1348 -0.78644,0.2921 -0.47187,0.1348 -1.01115,0.2247 -0.53927,0.09 -1.10102,0.09 -0.53928,-0.023 -0.98868,-0.2023 -0.42692,-0.2022 -0.69656,-0.6066 -0.26964,-0.427 -0.26964,-1.1235 v -3.2357 q 0,-0.8763 0.4494,-1.2808 0.44939,-0.4269 1.10102,-0.5168 0.6741,-0.09 1.46054,0.09 0.78645,0.1573 1.46054,0.4494 l 0.83139,-2.0897 q -0.65163,-0.3146 -1.61783,-0.5393 -0.94374,-0.2247 -1.82006,-0.2247 -0.87633,0 -1.66277,0.2247 -0.76398,0.2247 -1.32572,0.719 -0.56175,0.4719 -0.8988,1.2359 -0.31458,0.7415 -0.31458,1.7751 v 3.9772 q 0,1.0336 0.33705,1.7302 0.33705,0.6741 0.92126,1.0785 0.60669,0.4045 1.39314,0.5618 0.78644,0.1797 1.66277,0.1797 0.78644,0 1.6403,-0.1573 0.87632,-0.1573 1.77512,-0.4943 z" /><path
         inkscape:connector-curvature="0"
         id="path5176"
         style="font-style:normal;font-variant:normal;font-weight:500;font-stretch:normal;font-size:22.46987724px;font-family:AFKlampenborg;-inkscape-font-specification:'AFKlampenborg Medium';fill:#4d4d4d;fill-opacity:1;stroke-width:1.23209321"
         d="m 479.38903,1638.7988 v -8.1341 q 0,-0.8314 -0.31458,-1.4156 -0.31458,-0.6067 -0.85385,-0.9887 -0.51681,-0.4044 -1.23585,-0.5842 -0.69656,-0.1797 -1.48301,-0.1797 -0.40446,0 -0.87632,0.067 -0.4494,0.045 -0.8988,0.1348 -0.4494,0.09 -0.85386,0.2247 -0.40445,0.1123 -0.7415,0.2472 l 0.53928,1.9324 q 0.35951,-0.1798 1.01114,-0.3371 0.6741,-0.1797 1.46054,-0.1797 0.31458,0 0.65163,0.045 0.33705,0.045 0.60669,0.1798 0.26963,0.1348 0.44939,0.4269 0.17976,0.2696 0.17976,0.7415 v 0.7864 l -2.17958,-0.022 q -0.62915,0 -1.25831,0.2022 -0.62916,0.1798 -1.14596,0.5842 -0.49434,0.382 -0.83139,0.9887 -0.31458,0.6067 -0.31458,1.4381 v 0.8314 q 0,1.0111 0.26964,1.6403 0.29211,0.6291 0.76398,0.9886 0.49434,0.3371 1.12349,0.4719 0.65163,0.1348 1.34819,0.1348 0.49434,0 1.21338,-0.1123 0.71903,-0.1124 1.50548,-0.4944 l 0.60669,0.382 h 1.25831 z m -2.35934,-2.2919 q -0.33705,0.2247 -0.92126,0.4044 -0.56175,0.1573 -1.10103,0.1573 -0.53927,-0.022 -0.94373,-0.2696 -0.38199,-0.2696 -0.38199,-0.9213 v -0.6965 q 0,-0.6517 0.35952,-0.9887 0.35952,-0.3595 1.16843,-0.3595 l 1.82006,-0.023 v 2.6964 z" /><path
         inkscape:connector-curvature="0"
         id="path5178"
         style="font-style:normal;font-variant:normal;font-weight:500;font-stretch:normal;font-size:22.46987724px;font-family:AFKlampenborg;-inkscape-font-specification:'AFKlampenborg Medium';fill:#4d4d4d;fill-opacity:1;stroke-width:1.23209321"
         d="m 489.82208,1635.5632 v -4.6288 q 0,-1.1011 -0.33705,-1.7752 -0.33705,-0.6965 -0.8988,-1.056 -0.53927,-0.3596 -1.23584,-0.4719 -0.6741,-0.1348 -1.34819,-0.1348 -0.51681,0 -1.21338,0.1573 -0.69656,0.1572 -1.34819,0.5842 l -0.6741,-0.4944 h -1.12349 v 15.0998 h 1.57289 l 0.74151,-1.8201 v -2.4042 q 0.56174,0.2696 1.1909,0.337 0.62916,0.09 0.94374,0.09 0.7415,0 1.4156,-0.1798 0.67409,-0.1797 1.1909,-0.5842 0.51681,-0.4269 0.80892,-1.0785 0.31458,-0.6741 0.31458,-1.6403 z m -2.33687,-4.4041 -0.0225,4.449 q 0,0.719 -0.40446,1.0561 -0.40446,0.3146 -0.9662,0.3595 -0.56175,0.045 -1.16844,-0.1348 -0.58421,-0.1798 -0.9662,-0.4719 v -6.2241 q 0.4494,-0.3146 1.05608,-0.4944 0.60669,-0.2022 1.14597,-0.1348 0.56174,0.045 0.94373,0.4269 0.38199,0.3595 0.38199,1.1685 z" /><path
         inkscape:connector-curvature="0"
         id="path5180"
         style="font-style:normal;font-variant:normal;font-weight:500;font-stretch:normal;font-size:22.46987724px;font-family:AFKlampenborg;-inkscape-font-specification:'AFKlampenborg Medium';fill:#4d4d4d;fill-opacity:1;stroke-width:1.23209321"
         d="m 494.05134,1624.6653 v -2.3369 h -2.3144 v 2.3369 z m 0,14.1335 v -11.0327 h -2.3144 v 11.0327 z" /><path
         inkscape:connector-curvature="0"
         id="path5182"
         style="font-style:normal;font-variant:normal;font-weight:500;font-stretch:normal;font-size:22.46987724px;font-family:AFKlampenborg;-inkscape-font-specification:'AFKlampenborg Medium';fill:#4d4d4d;fill-opacity:1;stroke-width:1.23209321"
         d="m 501.8512,1629.8783 v -2.1122 h -2.62898 v -3.6176 h -1.68524 l -0.62916,1.9998 v 1.6178 h -1.50548 v 2.1122 h 1.50548 v 6.1567 q 0,0.5393 0.0899,1.0786 0.11235,0.5393 0.38199,0.9662 0.26964,0.4269 0.71904,0.6965 0.47186,0.2472 1.1909,0.2472 0.53928,0 1.16843,-0.1348 0.62916,-0.1348 1.37067,-0.5842 l -0.58422,-2.0448 q -0.26964,0.2247 -0.62916,0.382 -0.33705,0.1573 -0.67409,0.1798 -0.31458,0.022 -0.53928,-0.1348 -0.20223,-0.1798 -0.20223,-0.5843 l 0.0225,-6.2241 h 2.62898 z" /><path
         inkscape:connector-curvature="0"
         id="path5184"
         style="font-style:normal;font-variant:normal;font-weight:500;font-stretch:normal;font-size:22.46987724px;font-family:AFKlampenborg;-inkscape-font-specification:'AFKlampenborg Medium';fill:#4d4d4d;fill-opacity:1;stroke-width:1.23209321"
         d="m 511.29452,1638.7988 v -8.1341 q 0,-0.8314 -0.31458,-1.4156 -0.31458,-0.6067 -0.85386,-0.9887 -0.5168,-0.4044 -1.23584,-0.5842 -0.69657,-0.1797 -1.48301,-0.1797 -0.40446,0 -0.87633,0.067 -0.4494,0.045 -0.89879,0.1348 -0.4494,0.09 -0.85386,0.2247 -0.40446,0.1123 -0.7415,0.2472 l 0.53927,1.9324 q 0.35952,-0.1798 1.01115,-0.3371 0.67409,-0.1797 1.46054,-0.1797 0.31458,0 0.65163,0.045 0.33704,0.045 0.60668,0.1798 0.26964,0.1348 0.4494,0.4269 0.17976,0.2696 0.17976,0.7415 v 0.7864 l -2.17958,-0.022 q -0.62916,0 -1.25831,0.2022 -0.62916,0.1798 -1.14597,0.5842 -0.49433,0.382 -0.83138,0.9887 -0.31458,0.6067 -0.31458,1.4381 v 0.8314 q 0,1.0111 0.26964,1.6403 0.29211,0.6291 0.76397,0.9886 0.49434,0.3371 1.1235,0.4719 0.65163,0.1348 1.34819,0.1348 0.49434,0 1.21337,-0.1123 0.71904,-0.1124 1.50549,-0.4944 l 0.60668,0.382 h 1.25832 z m -2.35934,-2.2919 q -0.33705,0.2247 -0.92127,0.4044 -0.56174,0.1573 -1.10102,0.1573 -0.53928,-0.022 -0.94373,-0.2696 -0.38199,-0.2696 -0.38199,-0.9213 v -0.6965 q 0,-0.6517 0.35952,-0.9887 0.35951,-0.3595 1.16843,-0.3595 l 1.82006,-0.023 v 2.6964 z" /><path
         inkscape:connector-curvature="0"
         id="path5186"
         style="font-style:normal;font-variant:normal;font-weight:500;font-stretch:normal;font-size:22.46987724px;font-family:AFKlampenborg;-inkscape-font-specification:'AFKlampenborg Medium';fill:#4d4d4d;fill-opacity:1;stroke-width:1.23209321"
         d="m 518.64917,1638.4393 -0.62915,-1.9773 q -0.42693,0.2471 -0.80892,0.337 -0.38199,0.09 -0.69656,0.045 -0.29211,-0.067 -0.47187,-0.2921 -0.17976,-0.2471 -0.17976,-0.6516 v -13.5718 h -1.73018 l -0.58422,2.629 v 11.6394 q 0,0.1123 0.0449,0.5168 0.0449,0.382 0.26964,0.8089 0.24717,0.4269 0.74151,0.764 0.5168,0.337 1.43807,0.337 0.58422,0 1.1909,-0.1348 0.62916,-0.1348 1.4156,-0.4494 z" /><path
         inkscape:connector-curvature="0"
         id="path5188"
         style="font-style:normal;font-variant:normal;font-weight:500;font-stretch:normal;font-size:22.46987724px;font-family:AFKlampenborg;-inkscape-font-specification:'AFKlampenborg Medium';fill:#4d4d4d;fill-opacity:1;stroke-width:1.23209321"
         d="m 522.31423,1624.6653 v -2.3369 h -2.31439 v 2.3369 z m 0,14.1335 v -11.0327 h -2.31439 v 11.0327 z" /><path
         inkscape:connector-curvature="0"
         id="path5190"
         style="font-style:normal;font-variant:normal;font-weight:500;font-stretch:normal;font-size:22.46987724px;font-family:AFKlampenborg;-inkscape-font-specification:'AFKlampenborg Medium';fill:#4d4d4d;fill-opacity:1;stroke-width:1.23209321"
         d="m 531.55215,1635.0913 q 0,-0.719 -0.58422,-1.3033 -0.58422,-0.6067 -1.37066,-0.9886 l -2.49416,-1.2808 q -0.4494,-0.2247 -0.51681,-0.5618 -0.0674,-0.337 0.0449,-0.6067 0.15729,-0.4044 0.6741,-0.5168 0.53928,-0.1348 1.14596,-0.067 0.62916,0.045 1.21338,0.2023 0.58421,0.1348 0.89879,0.2696 l 0.60669,-2.1571 q -0.31458,-0.1348 -0.74151,-0.2247 -0.40445,-0.1124 -0.83138,-0.1798 -0.42693,-0.067 -0.83139,-0.09 -0.38199,-0.045 -0.67409,-0.045 -1.75265,0 -2.80874,0.8089 -1.03361,0.7865 -1.03361,2.247 v 0.3146 q 0,0.5617 0.17976,0.9887 0.17975,0.4269 0.49433,0.7864 0.31458,0.3371 0.71904,0.6067 0.42693,0.2696 0.92126,0.5168 l 1.77512,0.8988 q 0.26964,0.1348 0.58422,0.337 0.31458,0.1798 0.31458,0.5618 v 0.2472 q 0,0.6291 -0.53928,0.8538 -0.53927,0.2247 -1.28078,0.2247 -0.74151,-0.023 -1.50548,-0.2247 -0.76398,-0.2247 -1.21338,-0.4718 l -0.69656,1.9998 q 0.58421,0.3146 1.52795,0.5617 0.94373,0.2247 1.95488,0.2247 0.76397,0 1.48301,-0.1573 0.74151,-0.1573 1.30325,-0.5392 0.58422,-0.4045 0.92127,-1.0337 0.35952,-0.6291 0.35952,-1.5729 v -0.6291 z" /><path
         inkscape:connector-curvature="0"
         id="path5192"
         style="font-style:normal;font-variant:normal;font-weight:500;font-stretch:normal;font-size:22.46987724px;font-family:AFKlampenborg;-inkscape-font-specification:'AFKlampenborg Medium';fill:#4d4d4d;fill-opacity:1;stroke-width:1.23209321"
         d="m 539.02304,1629.8783 v -2.1122 h -2.62897 v -3.6176 h -1.68525 l -0.62915,1.9998 v 1.6178 h -1.50548 v 2.1122 h 1.50548 v 6.1567 q 0,0.5393 0.0899,1.0786 0.11235,0.5393 0.38199,0.9662 0.26963,0.4269 0.71903,0.6965 0.47187,0.2472 1.1909,0.2472 0.53928,0 1.16844,-0.1348 0.62916,-0.1348 1.37066,-0.5842 l -0.58422,-2.0448 q -0.26963,0.2247 -0.62915,0.382 -0.33705,0.1573 -0.6741,0.1798 -0.31458,0.022 -0.53928,-0.1348 -0.20222,-0.1798 -0.20222,-0.5843 l 0.0225,-6.2241 h 2.62897 z" /><path
         inkscape:connector-curvature="0"
         id="path5194"
         style="font-style:normal;font-variant:normal;font-weight:500;font-stretch:normal;font-size:22.46987724px;font-family:AFKlampenborg;-inkscape-font-specification:'AFKlampenborg Medium';fill:#4d4d4d;fill-opacity:1;stroke-width:1.23209321"
         d="m 548.46636,1638.7988 v -8.1341 q 0,-0.8314 -0.31458,-1.4156 -0.31458,-0.6067 -0.85385,-0.9887 -0.51681,-0.4044 -1.23585,-0.5842 -0.69656,-0.1797 -1.48301,-0.1797 -0.40446,0 -0.87632,0.067 -0.4494,0.045 -0.8988,0.1348 -0.4494,0.09 -0.85385,0.2247 -0.40446,0.1123 -0.74151,0.2472 l 0.53928,1.9324 q 0.35952,-0.1798 1.01114,-0.3371 0.6741,-0.1797 1.46054,-0.1797 0.31458,0 0.65163,0.045 0.33705,0.045 0.60669,0.1798 0.26964,0.1348 0.44939,0.4269 0.17976,0.2696 0.17976,0.7415 v 0.7864 l -2.17957,-0.022 q -0.62916,0 -1.25832,0.2022 -0.62915,0.1798 -1.14596,0.5842 -0.49434,0.382 -0.83139,0.9887 -0.31458,0.6067 -0.31458,1.4381 v 0.8314 q 0,1.0111 0.26964,1.6403 0.29211,0.6291 0.76398,0.9886 0.49434,0.3371 1.12349,0.4719 0.65163,0.1348 1.3482,0.1348 0.49433,0 1.21337,-0.1123 0.71904,-0.1124 1.50548,-0.4944 l 0.60669,0.382 h 1.25831 z m -2.35934,-2.2919 q -0.33704,0.2247 -0.92126,0.4044 -0.56175,0.1573 -1.10103,0.1573 -0.53927,-0.022 -0.94373,-0.2696 -0.38199,-0.2696 -0.38199,-0.9213 v -0.6965 q 0,-0.6517 0.35952,-0.9887 0.35952,-0.3595 1.16843,-0.3595 l 1.82006,-0.023 v 2.6964 z" /></g></g></svg>